Attachments • basecamper
…
Unzipped files information

zip_dir <- tools::file_path_sans_ext(list.files(td,pattern = '.zip$',full.names = TRUE))

unzipped_files <- fs::file_info(
  list.files(zip_dir,full.names = TRUE)
  )[,c('path','size')]

# clean up the path for printing
unzipped_files$path <- basename(unzipped_files$path)

unzipped_files
#> # A tibble: 72 x 2
#>    path                          size
#>    <chr>                  <fs::bytes>
#>  1 00qa.tex                       650
#>  2 00title.tex                    627
#>  3 02methods.log              496.82K
#>  4 appendices.tex               4.89K
#>  5 brief_r1139_LW.pdf         334.15K
#>  6 brief_r1139.pdf             346.1K
#>  7 brief_r1153.pdf            353.01K
#>  8 brief_r1169_signed.pdf     643.76K
#>  9 brief-signed.pdf           847.07K
#> 10 brief.aux                   12.08K
#> # … with 62 more rows
…
